<svg width="24" height="24" viewBox="0 0 24 24" fill="none" xmlns="http://www.w3.org/2000/svg">
<path fill-rule="evenodd" clip-rule="evenodd" d="M11 3C11 2.44772 11.4477 2 12 2C17.5228 2 22 6.47715 22 12C22 17.5228 17.5228 22 12 22C11.4477 22 11 21.5523 11 21C11 20.4477 11.4477 20 12 20C16.4183 20 20 16.4183 20 12C20 7.58172 16.4183 4 12 4C11.4477 4 11 3.55228 11 3Z" fill="#8C8C8C"/>
<path fill-rule="evenodd" clip-rule="evenodd" d="M12 6C12.5523 6 13 6.44772 13 7V11.5858L15.7071 14.2929C16.0976 14.6834 16.0976 15.3166 15.7071 15.7071C15.3166 16.0976 14.6834 16.0976 14.2929 15.7071L11.2929 12.7071C11.1054 12.5196 11 12.2652 11 12V7C11 6.44772 11.4477 6 12 6Z" fill="#8C8C8C"/>
<path fill-rule="evenodd" clip-rule="evenodd" d="M4.20996 6.5C4.76225 6.5 5.20996 6.94772 5.20996 7.5V7.51C5.20996 8.06229 4.76225 8.51 4.20996 8.51C3.65768 8.51 3.20996 8.06229 3.20996 7.51V7.5C3.20996 6.94772 3.65768 6.5 4.20996 6.5Z" fill="#8C8C8C"/>
<path fill-rule="evenodd" clip-rule="evenodd" d="M3 11C3.55228 11 4 11.4477 4 12V12.01C4 12.5623 3.55228 13.01 3 13.01C2.44772 13.01 2 12.5623 2 12.01V12C2 11.4477 2.44772 11 3 11Z" fill="#8C8C8C"/>
<path fill-rule="evenodd" clip-rule="evenodd" d="M4.20996 15.5C4.76225 15.5 5.20996 15.9477 5.20996 16.5V16.51C5.20996 17.0623 4.76225 17.51 4.20996 17.51C3.65768 17.51 3.20996 17.0623 3.20996 16.51V16.5C3.20996 15.9477 3.65768 15.5 4.20996 15.5Z" fill="#8C8C8C"/>
<path fill-rule="evenodd" clip-rule="evenodd" d="M7.5 18.79C8.05228 18.79 8.5 19.2378 8.5 19.79V19.8C8.5 20.3523 8.05228 20.8 7.5 20.8C6.94772 20.8 6.5 20.3523 6.5 19.8V19.79C6.5 19.2378 6.94772 18.79 7.5 18.79Z" fill="#8C8C8C"/>
<path fill-rule="evenodd" clip-rule="evenodd" d="M2.02443 4.75582C1.90296 4.21706 2.24124 3.68183 2.78 3.56036L6.91874 2.6272C7.4575 2.50573 7.99273 2.844 8.1142 3.38276L9.04736 7.52151C9.16883 8.06027 8.83056 8.5955 8.29179 8.71697C7.75303 8.83844 7.21781 8.50017 7.09634 7.96141L6.38312 4.79817L3.21989 5.51138C2.68113 5.63286 2.14591 5.29458 2.02443 4.75582Z" fill="#8C8C8C"/>
</svg>
