<svg width="30" height="30" viewBox="0 0 30 30" fill="none" xmlns="http://www.w3.org/2000/svg">
<path fill-rule="evenodd" clip-rule="evenodd" d="M11.25 4.75C9.04086 4.75 7.25 6.54086 7.25 8.75C7.25 10.9591 9.04086 12.75 11.25 12.75C13.4591 12.75 15.25 10.9591 15.25 8.75C15.25 6.54086 13.4591 4.75 11.25 4.75ZM5.25 8.75C5.25 5.43629 7.93629 2.75 11.25 2.75C14.5637 2.75 17.25 5.43629 17.25 8.75C17.25 12.0637 14.5637 14.75 11.25 14.75C7.93629 14.75 5.25 12.0637 5.25 8.75Z" fill="currentColor"/>
<path fill-rule="evenodd" clip-rule="evenodd" d="M8.75 19.75C7.68913 19.75 6.67172 20.1714 5.92157 20.9216C5.17143 21.6717 4.75 22.6891 4.75 23.75V26.25C4.75 26.8023 4.30228 27.25 3.75 27.25C3.19772 27.25 2.75 26.8023 2.75 26.25V23.75C2.75 22.1587 3.38214 20.6326 4.50736 19.5074C5.63258 18.3821 7.1587 17.75 8.75 17.75H13.75C15.3413 17.75 16.8674 18.3821 17.9926 19.5074C19.1179 20.6326 19.75 22.1587 19.75 23.75V26.25C19.75 26.8023 19.3023 27.25 18.75 27.25C18.1977 27.25 17.75 26.8023 17.75 26.25V23.75C17.75 22.6891 17.3286 21.6717 16.5784 20.9216C15.8283 20.1714 14.8109 19.75 13.75 19.75H8.75Z" fill="currentColor"/>
<path fill-rule="evenodd" clip-rule="evenodd" d="M19.0312 3.66446C19.1682 3.12944 19.713 2.80676 20.248 2.94375C21.5387 3.2742 22.6826 4.0248 23.4995 5.07722C24.3164 6.12963 24.7598 7.424 24.7598 8.75625C24.7598 10.0885 24.3164 11.3829 23.4995 12.4353C22.6826 13.4877 21.5387 14.2383 20.248 14.5688C19.713 14.7057 19.1682 14.3831 19.0312 13.848C18.8943 13.313 19.2169 12.7682 19.752 12.6313C20.6124 12.411 21.375 11.9106 21.9196 11.2089C22.4642 10.5073 22.7598 9.64442 22.7598 8.75625C22.7598 7.86808 22.4642 7.00517 21.9196 6.30356C21.375 5.60195 20.6124 5.10155 19.752 4.88125C19.2169 4.74426 18.8943 4.19949 19.0312 3.66446Z" fill="currentColor"/>
<path fill-rule="evenodd" clip-rule="evenodd" d="M21.5317 18.6875C21.6698 18.1528 22.2152 17.8312 22.75 17.9692C24.0322 18.3003 25.1689 19.0463 25.9829 20.0909C26.7969 21.1354 27.2424 22.42 27.25 23.7442L27.25 23.75H27.25V26.25C27.25 26.8023 26.8023 27.25 26.25 27.25C25.6977 27.25 25.25 26.8023 25.25 26.25V23.753C25.2443 22.8712 24.9474 22.0158 24.4053 21.3202C23.8626 20.6238 23.1048 20.1264 22.25 19.9057C21.7153 19.7677 21.3937 19.2223 21.5317 18.6875Z" fill="currentColor"/>
</svg>
